0,2019-08-27 00:00:00,2019-08-27 06:00:45,30,12.89,27.21,1.0,124.734,30.85,1.1,119.6,25.49,23.88,90.4,1009.163,0.0,0.0,0.0
1800,2019-08-27 00:30:00,2019-08-27 06:00:45,30,12.86,26.86,1.0,124.771,30.69,0.995,122.9,25.35,23.66,89.7,1008.913,0.0,0.0,0.0
3600,2019-08-27 01:00:00,2019-08-27 06:00:45,30,12.85,26.59,1.0,124.817,30.54,1.24,126.1,24.85,23.67,92.7,1008.717,0.0,0.0,0.0
5400,2019-08-27 01:30:00,2019-08-27 06:00:45,30,12.84,26.27,1.0,124.845,30.47,0.985,131.1,24.6,23.42,93.0,1008.507,0.0,0.0,0.0
7200,2019-08-27 02:00:00,2019-08-27 06:00:45,30,12.83,25.88,1.0,124.883,30.37,1.105,124.2,24.47,23.39,93.3,1008.337,0.0,0.0,0.0
9000,2019-08-27 02:30:00,2019-08-27 06:00:45,30,12.81,25.63,1.0,124.913,30.26,0.885,129.8,24.3,23.37,93.9,1008.19,0.0,0.0,0.0
10800,2019-08-27 03:00:00,2019-08-27 06:00:45,30,12.8,25.38,1.0,124.95,30.17,0.86,128.3,24.23,23.37,94.7,1007.84,0.0,0.0,0.0
12600,2019-08-27 03:30:00,2019-08-27 06:00:45,30,12.78,25.21,1.0,124.989,30.05,0.725,121.4,24.27,23.45,95.0,1007.7,0.0,0.0,0.0
14400,2019-08-27 04:00:00,2019-08-27 06:00:45,30,12.77,25.05,1.0,125.015,29.94,0.98,133.6,24.13,23.38,95.3,1007.89,0.0,0.0,0.0
16200,2019-08-27 04:30:00,2019-08-27 06:00:45,30,12.76,24.91,1.0,125.037,29.82,1.0,131.0,24.02,23.36,95.7,1007.94,0.0,0.0,0.0
18000,2019-08-27 05:00:00,2019-08-27 06:00:45,30,12.75,24.81,0.8,125.069,29.71,0.905,128.5,24.03,23.42,96.0,1008.007,0.0,0.0,0.0
19800,2019-08-27 05:30:00,2019-08-27 06:00:45,30,12.74,24.73,0.967,125.091,29.61,1.14,133.1,23.95,23.39,96.3,1008.217,0.0,0.0,0.0
21600,2019-08-27 06:00:00,2019-08-27 06:30:47,30,12.73,24.73,0.667,125.132,29.55,1.145,125.7,24.01,23.46,96.3,1008.467,0.0,0.0,0.0
23400,2019-08-27 06:30:00,2019-08-27 07:00:50,30,12.73,24.65,0.767,125.141,29.44,1.145,135.0,23.6,23.11,96.9,1008.64,0.0,0.0,0.0
25200,2019-08-27 07:00:00,2019-08-27 07:30:53,30,12.73,24.42,7.867,125.162,29.32,1.07,122.4,23.62,23.24,97.2,1008.99,0.0,0.0,0.0
27000,2019-08-27 07:30:00,2019-08-27 08:00:55,30,12.83,24.91,65.57,125.164,29.13,1.2,133.0,23.9,23.38,96.5,1009.483,0.0,0.0,0.0
28800,2019-08-27 08:00:00,2019-08-27 08:30:58,30,13.34,26.36,163.0,125.147,29.13,1.28,125.7,24.84,23.95,94.4,1010.077,0.0,0.0,0.0
30600,2019-08-27 08:30:00,2019-08-27 09:01:00,30,13.49,28.88,255.2,125.132,29.11,1.61,98.1,26.76,24.84,88.9,1010.4,0.0,0.0,0.0
32400,2019-08-27 09:00:00,2019-08-27 09:31:03,30,13.63,31.64,374.8,125.062,29.1,2.29,87.3,28.29,25.34,83.7,1010.64,0.0,0.0,0.0
34200,2019-08-27 09:30:00,2019-08-27 10:00:06,30,13.66,33.91,489.0,124.927,29.14,2.01,79.67,29.19,25.8,81.6,1010.897,0.0,0.0,0.0
36000,2019-08-27 10:00:00,2019-08-27 10:30:09,30,13.66,35.18,557.0,124.73,29.22,3.335,76.1,29.99,25.81,77.9,1011.067,0.0,0.0,0.0
37800,2019-08-27 10:30:00,2019-08-27 11:00:11,30,13.27,35.86,699.7,124.585,29.36,4.13,81.9,30.72,24.92,70.93,1011.023,0.0,0.0,0.0
39600,2019-08-27 11:00:00,2019-08-27 11:30:14,30,13.27,36.64,789.8,124.034,29.51,3.41,83.6,30.91,24.52,68.33,1011.11,0.0,0.0,0.0
41400,2019-08-27 11:30:00,2019-08-27 12:00:17,30,13.24,37.45,816.0,123.459,29.64,2.46,81.2,31.32,24.78,67.93,1011.007,0.0,0.0,0.0
43200,2019-08-27 12:00:00,2019-08-27 12:30:20,30,13.24,37.84,825.0,122.735,29.78,3.95,79.73,31.81,24.51,64.97,1010.737,0.0,0.0,0.0
45000,2019-08-27 12:30:00,2019-08-27 13:00:22,30,13.24,38.09,906.0,122.105,29.93,2.97,69.3,32.29,24.24,62.27,1010.3,0.0,0.0,0.0
46800,2019-08-27 13:00:00,2019-08-27 13:30:26,30,13.24,38.11,911.0,121.302,30.04,2.925,78.7,32.45,24.09,61.0,1009.873,0.0,0.0,0.0
48600,2019-08-27 13:30:00,2019-08-27 14:00:28,30,13.27,37.95,897.0,120.585,30.25,2.27,67.47,32.68,23.96,59.8,1009.317,0.0,0.0,0.0
50400,2019-08-27 14:00:00,2019-08-27 14:30:31,30,13.25,39.42,866.0,120.032,30.56,2.505,71.37,33.01,23.72,57.87,1008.903,0.0,0.0,0.0
52200,2019-08-27 14:30:00,2019-08-27 15:00:34,30,13.25,40.48,823.0,119.392,30.9,2.575,79.37,33.34,22.85,53.87,1008.347,0.0,0.0,0.0
54000,2019-08-27 15:00:00,2019-08-27 15:30:36,30,13.22,41.15,757.9,118.784,31.27,2.02,91.2,33.69,22.3,51.1,1007.87,0.0,0.0,0.0
55800,2019-08-27 15:30:00,2019-08-27 16:00:39,30,13.21,41.58,681.2,118.327,31.6,2.86,74.93,33.82,21.97,49.63,1007.577,0.0,0.0,0.0
57600,2019-08-27 16:00:00,2019-08-27 16:30:41,30,13.22,41.84,589.6,117.882,31.89,2.615,77.77,34.07,21.75,48.27,1007.313,0.0,0.0,0.0
59400,2019-08-27 16:30:00,2019-08-27 17:00:44,30,13.22,41.78,488.0,117.585,32.13,2.82,71.97,34.17,20.94,45.67,1007.067,0.0,0.0,0.0
61200,2019-08-27 17:00:00,2019-08-27 17:30:46,30,13.22,41.43,380.1,117.602,32.32,2.21,79.03,33.96,20.29,44.43,1006.75,0.0,0.0,0.0
63000,2019-08-27 17:30:00,2019-08-27 18:00:48,30,13.28,40.4,215.0,117.637,32.42,1.675,79.23,33.55,21.13,47.83,1006.41,0.0,0.0,0.0
64800,2019-08-27 18:00:00,2019-08-27 18:30:51,30,13.18,38.32,59.27,117.702,32.44,2.125,68.93,32.65,22.72,55.7,1006.34,0.0,0.0,0.0
66600,2019-08-27 18:30:00,2019-08-27 19:00:53,30,13.07,36.22,32.73,117.723,32.38,1.23,76.0,32.01,23.88,61.9,1006.547,0.0,0.0,0.0
68400,2019-08-27 19:00:00,2019-08-27 19:30:56,30,13.01,34.93,6.8,117.74,32.24,1.185,93.5,31.17,24.58,67.7,1006.817,0.0,0.0,0.0
70200,2019-08-27 19:30:00,2019-08-27 20:00:58,30,12.99,33.71,0.567,117.812,32.2,1.32,131.9,30.24,24.74,72.1,1006.923,0.0,0.0,0.0
72000,2019-08-27 20:00:00,2019-08-27 20:31:01,30,12.98,32.59,0.567,117.88,33.55,1.635,129.2,29.13,24.83,77.23,1007.037,0.0,0.0,0.0
73800,2019-08-27 20:30:00,2019-08-27 21:01:02,30,12.97,31.58,0.9,117.939,32.63,1.01,129.5,28.77,24.44,76.97,1007.22,0.0,0.0,0.0
75600,2019-08-27 21:00:00,2019-08-27 21:31:05,30,12.96,30.87,1.0,117.989,31.91,0.995,117.8,28.12,24.51,80.4,1007.537,0.0,0.0,0.0
77400,2019-08-27 21:30:00,2019-08-27 22:00:09,30,12.95,30.15,1.0,118.038,31.66,1.35,122.2,27.81,24.39,81.4,1007.963,0.0,0.0,0.0
79200,2019-08-27 22:00:00,2019-08-27 22:30:11,30,12.94,29.69,1.0,118.078,32.57,0.975,107.0,27.57,24.34,82.2,1008.377,0.0,0.0,0.0
81000,2019-08-27 22:30:00,2019-08-27 23:00:14,30,12.93,29.28,1.0,118.101,31.75,1.355,86.4,27.71,24.35,81.6,1008.61,0.0,0.0,0.0
82800,2019-08-27 23:00:00,2019-08-27 23:30:17,30,12.92,29.04,1.0,118.142,34.34,1.355,115.3,27.35,24.35,83.2,1008.667,0.0,0.0,0.0
84600,2019-08-27 23:30:00,2019-08-28 00:00:19,30,12.91,28.79,1.0,118.163,31.0,1.33,106.1,27.14,24.18,83.4,1008.85,0.0,0.0,0.0